Spatial Planning With Zones
…
s10 <- p10 %>%
  prioritizr::solve.ConservationProblem()

After setting up and solving the conservation problem, we can have a
look at the resulting solution and how well the targets are met.

s10F <- s10 %>%
  dplyr::select(tidyselect::starts_with(c("solution"))) %>%
  sf::st_drop_geometry() %>%
  tibble::as_tibble()

r10 <- prioritizr::eval_feature_representation_summary(p10, s10F)
print(r10)
#> # A tibble: 45 × 5
#>    summary feature                    total_amount absolute_held relative_held
#>    <chr>   <chr>                             <dbl>         <dbl>         <dbl>
#>  1 overall Chelonia_mydas                       44            18         0.409
#>  2 overall Caretta_caretta                      44            18         0.409
#>  3 overall Eretmochelys_imbricata               48            19         0.396
#>  4 overall Lepidochelys_olivacea                44            18         0.409
#>  5 overall Crocodylus_porosus                   42            17         0.405
#>  6 overall Megaptera_novaeangliae              776           233         0.300
#>  7 overall Balaenoptera_acutorostrata          476           159         0.334
#>  8 overall Dugong_dugon                         26            11         0.423
#>  9 overall Carcharias_taurus                    44            18         0.409
#> 10 overall Galeocerdo_cuvier                    72            31         0.431
#> # ℹ 35 more rows
…
s11 <- p11 %>%
  prioritizr::solve.ConservationProblem()

s11F <- s11 %>%
  dplyr::select(tidyselect::starts_with(c("solution"))) %>%
  sf::st_drop_geometry() %>%
  tibble::as_tibble()

r11 <- prioritizr::eval_feature_representation_summary(p11, s11F)
print(r11)
#> # A tibble: 45 × 5
#>    summary feature                    total_amount absolute_held relative_held
#>    <chr>   <chr>                             <dbl>         <dbl>         <dbl>
#>  1 overall Chelonia_mydas                       44            14         0.318
#>  2 overall Caretta_caretta                      44            14         0.318
#>  3 overall Eretmochelys_imbricata               48            15         0.312
#>  4 overall Lepidochelys_olivacea                44            14         0.318
#>  5 overall Crocodylus_porosus                   42            14         0.333
#>  6 overall Megaptera_novaeangliae              776           233         0.300
#>  7 overall Balaenoptera_acutorostrata          476           143         0.300
#>  8 overall Dugong_dugon                         26             9         0.346
#>  9 overall Carcharias_taurus                    44            14         0.318
#> 10 overall Galeocerdo_cuvier                    72            24         0.333
#> # ℹ 35 more rows
…
s12 <- p12 %>%
  prioritizr::solve.ConservationProblem()

s12F <- s12 %>%
  dplyr::select(tidyselect::starts_with(c("solution"))) %>%
  sf::st_drop_geometry() %>%
  tibble::as_tibble()

r12 <- prioritizr::eval_feature_representation_summary(p12, s12F)
print(r12)
#> # A tibble: 60 × 5
#>    summary feature                    total_amount absolute_held relative_held
#>    <chr>   <chr>                             <dbl>         <dbl>         <dbl>
#>  1 overall Chelonia_mydas                       66            16        0.242 
#>  2 overall Caretta_caretta                      66            16        0.242 
#>  3 overall Eretmochelys_imbricata               72            17        0.236 
#>  4 overall Lepidochelys_olivacea                66            16        0.242 
#>  5 overall Crocodylus_porosus                   63            16        0.254 
#>  6 overall Megaptera_novaeangliae             1164            64        0.0550
#>  7 overall Balaenoptera_acutorostrata          714            44        0.0616
#>  8 overall Dugong_dugon                         39             8        0.205 
#>  9 overall Carcharias_taurus                    66            16        0.242 
#> 10 overall Galeocerdo_cuvier                   108            19        0.176 
#> # ℹ 50 more rows
…
